class_1,class_2,class_3,sentence,id
ENGAGE,,,"Don't want to start an edit war  but surely the name of the language was always in all-caps during the time when it was an important language? I bow to those who say that ""Lisp"" is now normally in mixed-case but I think the articles on these languages should state and document the proper capitalization of the languages and the date when the capitalization changed officially (if it changed officially) or the approximate time of transition in usage (if the change was informal). Dpbsmith 14:15  9 Mar 2004 (UTC) Cursory googling convinces me it was indeed ALGOL  all-caps. I'll leave this here for a while  and if nobody responds I'll change it to all-caps eventually. Dpbsmith 14:17  9 Mar 2004 (UTC)",EWDC48
ENGAGE,,,":Given that the two references in the External Links (including the one to ALGOL 68) give it in all-caps  and given that Rosen's 1967 ""Programming Systems and Languages"" includes the ALGOL 60 report which gives it in all caps  I'm going to go ahead. Dpbsmith 23:04  9 Mar 2004 (UTC)",EWDC49
ENGAGE,,,::It is of little interest to me  but the articles for the specific dialects of ALGOL are all in lowercase. One convention should be standardized throughout the encyclopedia. --Prosfilaes 01:17  31 May 2004 (UTC),EWDC50
ENGAGE,,,":::What articles are those? I see redirects from Algol 60 and Algol 68 and have now added redirects from ALGOL 60 and ALGOL 68. By the way  I don't believe it's a ""convention  the name of the language is ALGOL  all-caps. Dpbsmith 02:15  31 May 2004 (UTC)",EWDC51
ENGAGE,,,"The proper noun  ""Turing"" in the ""True ALGOL 60s specification and implementation timeline"" table currently points to a disambiguation page. I'd like to improve the wikification here  but I don't know what the ""the famous Turing lecture"" is. So  two things: (1) ""famous"" might be an inaccurate adjective for the ""Turing lecture"" (I have a degree in Computer Engineering and I haven't heard about it before now) and (2) ""Turing"" needs to point to something somehow related to this lecture. Any advice? --InformationalAnarchist 15:31  5 December 2006 (UTC)",EWDC52
ENGAGE,,,My proposal is: this ALGOL page should contain a summary of the chief innovations as Algol evolved through its various versions. include a brief timeline of the decendents. Algol 58 60 X Y 68 M W  Pascal etc etc Move Algol 60 specific details to a Algol 60 specific page on Algol 60 page: add a more details descriptions of the ALGOL 60 implementations and features. I am hoping that someone can work with me on this and help point out chief Algol version innovations. NevilleDNZ 09:01  1 May 2007 (UTC),EWDC53
ENGAGE,,,Plain text is unacceptable.  The above would never happen in real life because there are no reserved words in Algol60.  Variables are allowed to contain spaces (which are stripped by the compiler's pre-processing line reconstruction stage) and keywords may be run together  eg 'BEGIN' 'INTEGER' MYINTEGER,EWDC54
ENGAGE,,,Don't!  Pascal style assumes reserved keywords  which as explained above Algol60 does not use.  The formatter should take stropped keywords as input.,EWDC55
ENGAGE,,,that's right  but it depends on whether you are describing a reference syntax code sample or a machine syntax one.  In the latter it is only correct within the context of some specific named system and I/O device (eg the Flexowriter on the Atlas),EWDC56
ENGAGE,,,It seems to me that the best way to publish information on ALGOL is to use the publication standard  viz keywords in bold. I can't see any reason to consider using the particular coding convention of any particular machine implementation unless one is specifically writing about that implementation. Using the official ALGOL 60 publication standard seems to me to have 3 advantages: (1) it IS the standard  (2) it is consistent with the majority of information published on the language when it was in common use  (3) it is the most readable: at least it is to me. JamesBWatson 13:43  4 December 2007 (UTC),EWDC57
ENGAGE,,,Someone proposed that ALGOL object code merged to ALGOL!? Who!? Why!? ... OK  I can say: I think it's a good idea  since I believe that ALGOL object code never was an independent concept discussed in any other context than the ALGOL language  but that is what I believe  I'm not old enough to have been in  actual contact with ALGOL except one University laboration in the then still not deceased Simula. Said: Rursus ☺ ★ 08:58  28 June 2007 (UTC),EWDC58
ENGAGE,,,I disagree.  It belongs in a piece on intermediate codes along with others such as UNCOL  P-Code  Z-Code  CINTCODE  JANUS  I-Code  OCODE  CIL  and maybe JVM.,EWDC59
ENGAGE,,,I previously (December 2007) placed a statement here that the link given was dead. I have now discovered that the link has been resurrected  and once again does lead to a copy of NASE Algol60. JamesBWatson (talk) 19:39  25 November 2008 (UTC),EWDC60
ENGAGE,,,I reinserted Simula in the Algol list. It's a true and faithful Algol 60  despite it's name. It has much more  true  but that is related in C++ and Simula. Said: Rursus ☺ ★ 09:12  21 July 2007 (UTC),EWDC61
ENGAGE,,,True ALGOL 60s specification and implementation timeline  too many red links to dialects and implementations of varying quality. My proposed improvements: the table shall try to list the most important implementations: which may mean that the implementation has a big theoretical interest  or was used extensively  or [add your own estimates here]  links to implementations articles should be provided only if it is heavily needed/wished  or already exist. Said: Rursus ☺ ★ 10:36  21 July 2007 (UTC),EWDC62
ENGAGE,,,"ALGOL Y thread (included Algol 68  then C and C++ &al) championed by assorted people with spare CPU cycles. Algol-X and Algol-Y were prototype specifications that fueled some rather intense ""discussion"" between the designers and the incumbents. eg [ ] - from which you can draw your own conclusions. Maybe we could have :Category: ALGOL 60 dialects and :Category: ALGOL 68 dialects for Algol-X and Algol-Y decedents respectively.",EWDC63
ENGAGE,,,"Current text of the page claims that Burroughs systems used and use Elliott Algol. Does anyone know where this claim came from? It's incorrect per se -- I've been programming in Burroughs Algol since 1972  attended over 40 conferences of CUBE and UNITE (the Burroughs and Unisys user groups)  and have known many Burroughs/Unisys software engineers  and have never heard such a thing mentioned. I never used a B5000  which would be the system referenced by the ""as far back as 1961"" remark  but the snippets of Elliott Algol shown look quite different from anything handed down to later generations of MCP systems and certain look nothing like the Burroughs Algol which I first encountered in 1972. However  I realize that some link may have been intended but badly stated  so I don't want to just wipe it out without asking first. --Paleolith (talk) 06:18  12 December 2007 (UTC)",EWDC65
ENGAGE,,,I figured out that the Elliott link was added by Danakil  who made about twenty edits to the page over a few days along with huge numbers of edits to other pages  and who disappeared from Wikipedia a couple of years later. Some of his edits were good and others bad. The other bad ones appear to have been corrected since then. Someone posted a note on Danakil's discussion page questioning the Burroughs/Elliott link  but didn't follow up on it. That post was unsigned  but it appears to have been created by the same person who corrected the spelling of Elliott (not Elliot) here at a later date. I have revised this paragraph to remove the false linkage between Elliott and Burroughs  and also to try to make the entire paragraph clearer. The paragraph is a bit odd as it does not really fit in this section  but it's important in the history of ALGOL and doesn't have another good place that I can see.--Paleolith (talk) 08:34  18 December 2007 (UTC),EWDC66
ENGAGE,,,"Someone posting anonymously removed the sentence ""Note: Throughout its effective life  the name of the programming language ALGOL was always presented in all-uppercase letters  and this is the practice adopted here."" Since no reason was given  I undid the removal. If someone has a reason to remove the sentence  please give a reason -- I'm not defending the text  just saying that I don't see any reason to delete it and that no reason was given.--Paleolith (talk) 22:07  7 January 2008 (UTC)",EWDC67
ENGAGE,,,Thanks for restoring this. It turns out to be false. I have added a real Note citing sources that show both Algol and ALGOL are used. --Jtir (talk) 23:21  7 January 2008 (UTC),EWDC68
ENGAGE,,,I see no mention of (UK) ICT/ICL 1900-series Algol  mid-60s.  I have a manual for it  price 12/6. Nor of EE/EELM/Elliott? 4100 Algol. There was Algol for the Elliott 903/905. There was also  from Oxford  an Algol for the PDP/LSI-11  after mid-70s,EWDC69
ENGAGE,,,Reworked the table  removing the blank column  adding the most successful implementations and removing EMIDEC as it essentially had no info. 74.78.162.229 (talk) 20:27  5 July 2008 (UTC),EWDC70
ENGAGE,,,For a language so influential (C/C++  Java  etc all claim descent) there's not much in here to explain why it was groundbreaking. Just some cryptic comments about the 'failings of FORTRAN' and so on. I think this page needs a paragraph or two on why it was - for its time - so advanced.,EWDC71
ENGAGE,,,"While translating and editing an article on the Olivetti Elea   I ran across references to their Algol-derived language apparently called ""Palgol"" or ""Palgo"" (sources differ)  some time before Olivetti left the mainframe business. If this existed and was an Algol language  it perhaps should be documetned and added to the table. --Wtshymanski (talk) 20:22  21 June 2010 (UTC)",EWDC72
ENGAGE,,,Agreed... Add some specific details  esp anything that makes it unique.  Also you may also consider posting details to http://www.softwarepreservation.org/projects/ALGOL/algol60impl/,EWDC73
ENGAGE,,,A cursory glance at http://www.sparknotes.com/lit/modestproposal/summary.html seems to show some of this Wiki page to be plagiarized.,EWDC74
ENGAGE,,,I agree that this is clear plagiarism  and I also note that SparkNotes has a clear policy (from SparkNotes Help) :  Can I use the content on a SparkNotes page on my site? ::You cannot copy content directly onto a page  but you are welcome to link to the appropriate SparkNotes page.,EWDC75
ENGAGE,,,":::I wrote it so I can assure you that the article is not plagiarism but my very thoughts of ""A Modest Proposal"". If anything  SparkNotes plagiarized my writing?.",EWDC76
ENGAGE,,,I'm reverting the article. Unfortunately  the last original article seems to be from May 8  2005. --RemoWilliams 05:41  15 October 2006 (UTC),EWDC77
ENGAGE,,,"Is this article against Wikipedia's nonbias policy?  I will wait for an answer  but if I don't get one  I'll edit out the ""Christian ethics"" portion. - masmith",EWDC78
ENGAGE,,,"someone changed the full title to omit the final k - not sure about the English of that period  but maybe it was written ""publick"" back then? (clem 20:31  16 May 2005 (UTC))",EWDC79
ENGAGE,,,I changed it back to Publick  which is the original spelling  then someone reverted it  and someone else reverted it again. With all due respect to everyone involved  spelling in 1729 wasn't the same as it is today  and was actually quite a bit less formal. So the question  really  is whether the title of the wiki should correspond to the original title on the pamphlet itself  or modern spelling. I've been unable to find a wiki policy that directly relates to this matter. Perhaps someone can enlighten everyone? --RemoWilliams 21:05  23 October 2006 (UTC),EWDC80
ENGAGE,,,"In my view this entire article is Not Notable at best. It is certainly not NPOV  it is not relevant in any way to the phrase ""A Modest Proposal""  and it seems more like an attempt to vandalise Wikipedia.  In short it does not belong on Wikipedia  hence the {{delete}} notice. DO NOT remove this notice without a discussion on the topic. ::&mdash;gorgan_almighty 18:11  12 December 2005 (UTC)",EWDC81
ENGAGE,,,"Um  what? This is exactly where the prhase ""modest proposal"" comes from. It's a notable article by a notable author. Thus  I have removed the deletion notice. DS 18:49  12 December 2005 (UTC)",EWDC82
ENGAGE,,,"*If that is where the term ""Modest Proposal"" comes from then there may be a case for keeping the article.  But it needs to be rewritten because in no place in the article does it actually state why this Catholic babies thing is mentioned. There is no statement that it is the origin of the phrase. The article reads more like an argument supporting the case of eating babies. ::&mdash;gorgan_almighty 18:56  12 December 2005 (UTC)",EWDC83
ENGAGE,,,":::* If you think this article is about a non-notable piece of brilliant  if dark  satire that is extremely well know by the brief title ""A Modest Proposal""  would you also propose deletion for articles on the works of A. Conan Doyle  Charles Dickens  L. Frank Baum  and (to include other satirists Rabelais and Voltaire? wcf Facts are stubborn. Comments? 16:46  5 January 2006 (UTC)",EWDC84
ENGAGE,,,I believe this article is now (19 December 05) at a stage where the {{cleanup}} notice can be removed.  What do others think? ::&mdash,EWDC85
ENGAGE,,,"I have no problem with the article and was surprised to see a cleanup tag on it (I've written a couple of other Swift-related articles) so yes  it's fine.  And  to answer the top point  the original title does have a final ""k"" -- I have a reproduction of the title page in my Swift collection.  The explanation of ""modest proposal"" is good - usually a ""modest proposal"" is both grandiose and deliberately arguing the opposite viewpoint for satiric effect.  The Iron Mountain one is a great example.  One of Phillip K Dick's short stories is also based on A Modest Proposal but for the life of me I can't remember which one.  Back to my point  yes  take the cleanup tag off of it.AxS 22:17  20 December 2005 (UTC)",EWDC86
ENGAGE,,,I think you are right.  Feel free to edit it to make it more clear.  P.S. You can sign your name by typing ~~~~ after your comment.  Dan Slotman 05:06  27 October 2006 (UTC),EWDC87
ENGAGE,,,Since it's on WikiSource are links to two external versions necessary? --Kilrae 19:12  5 March 2007 (UTC),EWDC88
ENGAGE,,,Should we maybe add a spoiler warning to this article? (Eeesh 22:23  13 March 2007 (UTC)),EWDC89
ENGAGE,,,It's still an opinion  and until a section appears with a countervailing opinion  we ought to keep it out.  It is all the more damaging to write it here because it is such a popular opinion.  --VKokielov 20:25  30 October 2007 (UTC),EWDC90
ENGAGE,,,There doesn't seem to be any evidence that AMP was misunderstood  or that his peers didn't understand it was satirical  or that he nearly lost his patronage  any place that I can find  other than UnCyclopedia: http://uncyclopedia.org/wiki/A_Modest_Proposal.,EWDC91
ENGAGE,,,Please add a citation before editing that content back in.  RemoWilliams 17:06  27 October 2007 (UTC),EWDC92
ENGAGE,,,"Several footnotes cite ""Lewis"" and a page number.  Which work by which Lewis is intended? ~ MD Otley (talk) 03:50  5 February 2009 (UTC)",EWDC93
ENGAGE,,,"There is a warning on the page that  being based on the 1911 encyclopedia  ""this article may reflect the thinking of the turn of the last century""  but the big problem here is surely that it reflects the abbreviations of the turn of the last century. Or  in a way  I wish it did: since paper encyclopedias have always lagged behind their times  the ""Abbreviations now in use (1911)"" were  old-fashioned at the time  as well as being heavily weighted towards academic honors  Church of England titles and Latin phrases (reflecting the priorities of the time). As for the lists of ""Classical [=Roman] abbreviations""  a really long list  and ""Medieval abbreviations""  who's going to look for them in this article? If their existence on Wikipedia is any use to anybody - I defer to Classical and historical scholars - is it  honestly? - surely they should be moved to Roman empire or similar? It's not that I don't appreciate the trouble someone took to scan and upload portions of the 1911 encyclopedia  but I suppose the intention was to eventually evaluate which bits were of an  any use. And I also appreciate that the big need of this article is for an updated abbreviations list  rather than for just getting rid of the useless parts of the old one. But still  wouldn't that be a start? I'm pretty new at Wikipedia. There may be an ongoing general project   that I haven't heard of  for getting rid of the obsolete parts of the 1911 encyclopedia - but if there isn't  can't we make a start by deleting some of it right here? My suggestion would be that we keep the list of ""Abbreviations denoting moneys  weights  and measures"" - abbreviations for hogshead and farthing are  cool with me - and lose the rest. What do you think  people? Bishonen 20:42  12 Aug 2004 (UTC)",EWDC94
ENGAGE,,,"If anything  I'd say to move them to sub-pages such as ""Medieval abbreviations"" &c.  and link to those pages from this one.  The source (1911 encyclopedia) of the abbreviations is probably not important  but the content is worth preserving. DenisMoskowitz 17:56  2004 Aug 18 (UTC)",EWDC95
ENGAGE,,,I also think it is best to leave things as they are  with separate articles. Lucien Duval  from the French Wikipedia  28 November 2005 (UTC),EWDC96
